R Programming: Lecture Notes
…
lakers <- lakers %>% tbl_df
lakers #--> date, time 변수가 서로 나뉘어 있다.

## # A tibble: 34,624 x 13
##        date opponent game_type  time period      etype
##       <int>    <chr>     <chr> <chr>  <int>      <chr>
##  1 20081028      POR      home 12:00      1  jump ball
##  2 20081028      POR      home 11:39      1       shot
##  3 20081028      POR      home 11:37      1    rebound
##  4 20081028      POR      home 11:25      1       shot
##  5 20081028      POR      home 11:23      1    rebound
##  6 20081028      POR      home 11:22      1       shot
##  7 20081028      POR      home 11:22      1       foul
##  8 20081028      POR      home 11:22      1 free throw
##  9 20081028      POR      home 11:00      1       foul
## 10 20081028      POR      home 10:53      1       shot
## # ... with 34,614 more rows, and 7 more variables:
## #   team <chr>, player <chr>, result <chr>,
## #   points <int>, type <chr>, x <int>, y <int>
…
lakers <- lakers %>% 
    mutate(date = paste(date, time) %>% ymd_hm) %>% 
    dplyr::rename(time_index = date) %>% 
    select(-time)

#date, time 두변수를 붙인 문자열에 대해 ymd_hm() 함수로 넘긴 후
#time_index 라는 변수에 담고,
#date, time 두 변수를 제외한 것이다.

lakers

## # A tibble: 34,624 x 12
##             time_index opponent game_type period
##                 <dttm>    <chr>     <chr>  <int>
##  1 2008-10-28 12:00:00      POR      home      1
##  2 2008-10-28 11:39:00      POR      home      1
##  3 2008-10-28 11:37:00      POR      home      1
##  4 2008-10-28 11:25:00      POR      home      1
##  5 2008-10-28 11:23:00      POR      home      1
##  6 2008-10-28 11:22:00      POR      home      1
##  7 2008-10-28 11:22:00      POR      home      1
##  8 2008-10-28 11:22:00      POR      home      1
##  9 2008-10-28 11:00:00      POR      home      1
## 10 2008-10-28 10:53:00      POR      home      1
## # ... with 34,614 more rows, and 8 more variables:
## #   etype <chr>, team <chr>, player <chr>,
## #   result <chr>, points <int>, type <chr>, x <int>,
## #   y <int>
…
#Using "filter" "2008-10-28 12:00:00" 이전의 기간을 서브세팅
lakers %>% 
    filter(time_index <= ymd_hms("2008-10-28 12:00:00"))

## # A tibble: 416 x 12
##             time_index opponent game_type period
##                 <dttm>    <chr>     <chr>  <int>
##  1 2008-10-28 12:00:00      POR      home      1
##  2 2008-10-28 11:39:00      POR      home      1
##  3 2008-10-28 11:37:00      POR      home      1
##  4 2008-10-28 11:25:00      POR      home      1
##  5 2008-10-28 11:23:00      POR      home      1
##  6 2008-10-28 11:22:00      POR      home      1
##  7 2008-10-28 11:22:00      POR      home      1
##  8 2008-10-28 11:22:00      POR      home      1
##  9 2008-10-28 11:00:00      POR      home      1
## 10 2008-10-28 10:53:00      POR      home      1
## # ... with 406 more rows, and 8 more variables:
## #   etype <chr>, team <chr>, player <chr>,
## #   result <chr>, points <int>, type <chr>, x <int>,
## #   y <int>
…
# "2008-10-28 12:00:00" ~ "2009-03-09 00:33:00" 의 기간에 대해서 서브세팅
lakers %>% 
    filter(time_index >= ymd_hms("2008-10-28 12:00:00"), time_index <= ymd_hms("2009-03-09 00:33:00"))

## # A tibble: 25,554 x 12
##             time_index opponent game_type period
##                 <dttm>    <chr>     <chr>  <int>
##  1 2008-10-28 12:00:00      POR      home      1
##  2 2008-10-29 12:00:00      LAC      away      1
##  3 2008-10-29 11:36:00      LAC      away      1
##  4 2008-10-29 11:24:00      LAC      away      1
##  5 2008-10-29 11:24:00      LAC      away      1
##  6 2008-10-29 11:08:00      LAC      away      1
##  7 2008-10-29 10:58:00      LAC      away      1
##  8 2008-10-29 10:57:00      LAC      away      1
##  9 2008-10-29 10:41:00      LAC      away      1
## 10 2008-10-29 10:40:00      LAC      away      1
## # ... with 25,544 more rows, and 8 more variables:
## #   etype <chr>, team <chr>, player <chr>,
## #   result <chr>, points <int>, type <chr>, x <int>,
## #   y <int>

#interval() 함수와 %within% 연산자를 이용하면 조금 더 직관적인 서브세팅(interval() 함수대신 %--% 연산자를 써도 된다)
inter <- interval(ymd_hms("2008-10-28 12:00:00"), ymd_hms("2009-03-09 00:33:00"))
lakers %>% 
    filter(time_index %within% inter)

## # A tibble: 25,554 x 12
##             time_index opponent game_type period
##                 <dttm>    <chr>     <chr>  <int>
##  1 2008-10-28 12:00:00      POR      home      1
##  2 2008-10-29 12:00:00      LAC      away      1
##  3 2008-10-29 11:36:00      LAC      away      1
##  4 2008-10-29 11:24:00      LAC      away      1
##  5 2008-10-29 11:24:00      LAC      away      1
##  6 2008-10-29 11:08:00      LAC      away      1
##  7 2008-10-29 10:58:00      LAC      away      1
##  8 2008-10-29 10:57:00      LAC      away      1
##  9 2008-10-29 10:41:00      LAC      away      1
## 10 2008-10-29 10:40:00      LAC      away      1
## # ... with 25,544 more rows, and 8 more variables:
## #   etype <chr>, team <chr>, player <chr>,
## #   result <chr>, points <int>, type <chr>, x <int>,
## #   y <int>
…
